Ames Housing Price Prediction
…
house_wf <- workflow_set(preproc = list(pca = pca_recipe, ica = ica_recipe, basic = basic_recipe), models = list(mlp_model))

house_res <- workflow_map(house_wf, 
                          resamples = house_fold,
                          seed = 999,
                          grid = 5, 
                          control = control_grid(parallel_over = "everything", save_pred = TRUE))

Evaluate the model

collect_metrics(house_res) 

# A tibble: 30 × 9
   wflow_id .config       preproc model .metric .estimator    mean     n std_err
   <chr>    <chr>         <chr>   <chr> <chr>   <chr>        <dbl> <int>   <dbl>
 1 pca_mlp  Preprocessor… recipe  mlp   rmse    standard   4.88e+4    10 5.56e+3
 2 pca_mlp  Preprocessor… recipe  mlp   rsq     standard   6.28e-1    10 8.24e-2
 3 pca_mlp  Preprocessor… recipe  mlp   rmse    standard   3.87e+4    10 5.18e+3
 4 pca_mlp  Preprocessor… recipe  mlp   rsq     standard   7.71e-1    10 5.11e-2
 5 pca_mlp  Preprocessor… recipe  mlp   rmse    standard   3.38e+4    10 3.06e+3
 6 pca_mlp  Preprocessor… recipe  mlp   rsq     standard   8.22e-1    10 2.83e-2
 7 pca_mlp  Preprocessor… recipe  mlp   rmse    standard   3.69e+4    10 3.32e+3
 8 pca_mlp  Preprocessor… recipe  mlp   rsq     standard   7.90e-1    10 3.57e-2
 9 pca_mlp  Preprocessor… recipe  mlp   rmse    standard   3.66e+4    10 4.81e+3
10 pca_mlp  Preprocessor… recipe  mlp   rsq     standard   7.98e-1    10 4.56e-2
# ℹ 20 more rows
…
collect_metrics(final_model)

# A tibble: 2 × 4
  .metric .estimator .estimate .config             
  <chr>   <chr>          <dbl> <chr>               
1 rmse    standard   32408.    Preprocessor1_Model1
2 rsq     standard       0.844 Preprocessor1_Model1

results <-  final_model |> 
  collect_predictions() |> 
  select(.pred, SalePrice)

results

# A tibble: 365 × 2
     .pred SalePrice
     <dbl>     <dbl>
 1 229737.    223500
 2 255013.    279500
 3 149332.    157000
 4 319111.    325300
 5 116824.    139400
 6 255112.    230000
 7 116824.    134800
 8 116824.     68500
 9 185617.    179900
10 134922.    144000
# ℹ 355 more rows
…
Predict test set and import the results

pred <- extract_workflow(final_model) |> 
  predict(ames_test)

pred

# A tibble: 1,459 × 1
     .pred
     <dbl>
 1 116824.
 2 142262.
 3 185944.
 4 205764.
 5 164173.
 6 172864.
 7 184034.
 8 162081.
 9 187495.
10 116824.
# ℹ 1,449 more rows

submission <- ames_test |> 
  select(Id) |> 
  bind_cols(pred) |> 
  rename(SalePrice = .pred)

submission

# A tibble: 1,459 × 2
      Id SalePrice
   <dbl>     <dbl>
 1  1461   116824.
 2  1462   142262.
 3  1463   185944.
 4  1464   205764.
 5  1465   164173.
 6  1466   172864.
 7  1467   184034.
 8  1468   162081.
 9  1469   187495.
10  1470   116824.
# ℹ 1,449 more rows
…
